(export (version D)
  (design
    (source D:/gitlab/EMS/Hardware/EnergyMonitorSystem/EnergyMonitorSystem.sch)
    (date "01/13/16 15:15:46")
    (tool "Eeschema (2015-06-30 BZR 5847, Git 785638a)-product")
    (sheet (number 1) (name /) (tstamps /)
      (title_block
        (title "Energy Monitoring System")
        (company "Black Electronics [INDIA]")
        (rev 0.0)
        (date 2015-09-26)
        (source EnergyMonitorSystem.sch)
        (comment (number 1) (value ""))
        (comment (number 2) (value ""))
        (comment (number 3) (value ""))
        (comment (number 4) (value "")))))
  (components
    (comp (ref IC1)
      (value ATMEGA2560-A)
      (footprint QFP:TQFP-100_14x14mm_Pitch0.5mm)
      (libsource (lib atmel) (part ATMEGA2560-A))
      (sheetpath (names /) (tstamps /))
      (tstamp 56064657))
    (comp (ref U3)
      (value 1117-5)
      (footprint sot223:SOT223)
      (libsource (lib regul) (part AP1117))
      (sheetpath (names /) (tstamps /))
      (tstamp 56064A6F))
    (comp (ref U1)
      (value 1117-3V3)
      (footprint sot223:SOT223)
      (libsource (lib regul) (part AP1117))
      (sheetpath (names /) (tstamps /))
      (tstamp 56064AB7))
    (comp (ref D2)
      (value PWR)
      (footprint LEDs:LED-0805)
      (libsource (lib device) (part LED))
      (sheetpath (names /) (tstamps /))
      (tstamp 56064C13))
    (comp (ref D1)
      (value D)
      (footprint Diodes_SMD:SMA_Standard)
      (libsource (lib device) (part D))
      (sheetpath (names /) (tstamps /))
      (tstamp 56064D0A))
    (comp (ref C8)
      (value 10uF)
      (footprint Capacitors_Tantalum_SMD:TantalC_SizeB_EIA-3528_Reflow)
      (libsource (lib device) (part CP))
      (sheetpath (names /) (tstamps /))
      (tstamp 5606481B))
    (comp (ref Y1)
      (value 16MHz)
      (footprint Crystals:Crystal_HC50-U_Vertical)
      (libsource (lib device) (part Crystal_Small))
      (sheetpath (names /) (tstamps /))
      (tstamp 56064845))
    (comp (ref C10)
      (value 22pF)
      (footprint Capacitors_SMD:C_0805)
      (libsource (lib device) (part C_Small))
      (sheetpath (names /) (tstamps /))
      (tstamp 56064908))
    (comp (ref C11)
      (value 22pF)
      (footprint Capacitors_SMD:C_0805)
      (libsource (lib device) (part C_Small))
      (sheetpath (names /) (tstamps /))
      (tstamp 5606493D))
    (comp (ref R8)
      (value 10K)
      (footprint Resistors_SMD:R_0805)
      (libsource (lib device) (part R))
      (sheetpath (names /) (tstamps /))
      (tstamp 56064B97))
    (comp (ref R6)
      (value 10K)
      (footprint Resistors_SMD:R_0805)
      (libsource (lib device) (part R))
      (sheetpath (names /) (tstamps /))
      (tstamp 5606552C))
    (comp (ref C6)
      (value 10uF)
      (footprint Capacitors_Tantalum_SMD:TantalC_SizeB_EIA-3528_Reflow)
      (libsource (lib device) (part CP))
      (sheetpath (names /) (tstamps /))
      (tstamp 560F76EC))
    (comp (ref P4)
      (value ISP)
      (footprint Pin_Headers:Pin_Header_Straight_2x03)
      (libsource (lib conn) (part CONN_02X03))
      (sheetpath (names /) (tstamps /))
      (tstamp 560FC868))
    (comp (ref C4)
      (value 100uF)
      (footprint Capacitors_Tantalum_SMD:TantalC_SizeB_EIA-3528_Reflow)
      (libsource (lib device) (part CP))
      (sheetpath (names /) (tstamps /))
      (tstamp 560647E1))
    (comp (ref P7)
      (value FAN)
      (footprint Pin_Headers:Pin_Header_Straight_1x02)
      (libsource (lib conn) (part CONN_01X02))
      (sheetpath (names /) (tstamps /))
      (tstamp 56103105))
    (comp (ref SW1)
      (value ~R)
      (footprint IHE:SW_M6_PTH)
      (libsource (lib device) (part SW_PUSH))
      (sheetpath (names /) (tstamps /))
      (tstamp 5610560E))
    (comp (ref C1)
      (value 10nF)
      (footprint Capacitors_SMD:C_0805)
      (libsource (lib device) (part C))
      (sheetpath (names /) (tstamps /))
      (tstamp 56107398))
    (comp (ref C3)
      (value 10nF)
      (footprint Capacitors_SMD:C_0805)
      (libsource (lib device) (part C))
      (sheetpath (names /) (tstamps /))
      (tstamp 56107A89))
    (comp (ref C5)
      (value 10nF)
      (footprint Capacitors_SMD:C_0805)
      (libsource (lib device) (part C))
      (sheetpath (names /) (tstamps /))
      (tstamp 56107ADC))
    (comp (ref C7)
      (value 10nF)
      (footprint Capacitors_SMD:C_0805)
      (libsource (lib device) (part C))
      (sheetpath (names /) (tstamps /))
      (tstamp 56107B34))
    (comp (ref C9)
      (value 10nF)
      (footprint Capacitors_SMD:C_0805)
      (libsource (lib device) (part C_Small))
      (sheetpath (names /) (tstamps /))
      (tstamp 5610C527))
    (comp (ref U2)
      (value MAX485)
      (footprint SOIC_Packages:SOIC-8_3.9x4.9mm_Pitch1.27mm)
      (libsource (lib interface) (part SP3485CP))
      (sheetpath (names /) (tstamps /))
      (tstamp 560F77A4))
    (comp (ref R4)
      (value 680)
      (footprint Resistors_SMD:R_0805)
      (libsource (lib device) (part R))
      (sheetpath (names /) (tstamps /))
      (tstamp 560FA726))
    (comp (ref R5)
      (value 680)
      (footprint Resistors_SMD:R_0805)
      (libsource (lib device) (part R))
      (sheetpath (names /) (tstamps /))
      (tstamp 560FA7AB))
    (comp (ref P5)
      (value "B A")
      (footprint w_conn_screw:mstba_2,5%2f2-g-5,08)
      (libsource (lib conn) (part CONN_01X02))
      (sheetpath (names /) (tstamps /))
      (tstamp 560FADCA))
    (comp (ref R1)
      (value 10K)
      (footprint Resistors_SMD:R_0805)
      (libsource (lib device) (part R))
      (sheetpath (names /) (tstamps /))
      (tstamp 56101DE3))
    (comp (ref R2)
      (value 10K)
      (footprint Resistors_SMD:R_0805)
      (libsource (lib device) (part R))
      (sheetpath (names /) (tstamps /))
      (tstamp 56101E57))
    (comp (ref U4)
      (value DS3231N)
      (footprint SMD_Packages:SO-16-W)
      (libsource (lib Dispositivos_I2C) (part DS3231N))
      (sheetpath (names /) (tstamps /))
      (tstamp 5610291F))
    (comp (ref P2)
      (value CR2032)
      (footprint terminal:CR2032_noOUTline)
      (libsource (lib conn) (part CONN_01X02))
      (sheetpath (names /) (tstamps /))
      (tstamp 56106E1A))
    (comp (ref P1)
      (value "PWR IN")
      (footprint Connect:BARREL_JACK)
      (libsource (lib conn) (part CONN_01X02))
      (sheetpath (names /) (tstamps /))
      (tstamp 5616BC0A))
    (comp (ref C2)
      (value 10nF)
      (footprint Capacitors_SMD:C_0805)
      (libsource (lib device) (part C))
      (sheetpath (names /) (tstamps /))
      (tstamp 561AA456))
    (comp (ref D3)
      (value MB)
      (footprint LEDs:LED-0805)
      (libsource (lib device) (part LED))
      (sheetpath (names /) (tstamps /))
      (tstamp 561CB621))
    (comp (ref R7)
      (value 10K)
      (footprint Resistors_SMD:R_0805)
      (libsource (lib device) (part R))
      (sheetpath (names /) (tstamps /))
      (tstamp 561CD993))
    (comp (ref U6)
      (value ESP-12E)
      (footprint ESP8266:ESP-12E)
      (libsource (lib ESP8266) (part ESP-12E))
      (sheetpath (names /) (tstamps /))
      (tstamp 562B6140))
    (comp (ref R9)
      (value 10K)
      (footprint Resistors_SMD:R_0805)
      (libsource (lib device) (part R))
      (sheetpath (names /) (tstamps /))
      (tstamp 562F5BE6))
    (comp (ref R10)
      (value 100)
      (footprint Resistors_SMD:R_0805)
      (libsource (lib device) (part R))
      (sheetpath (names /) (tstamps /))
      (tstamp 562F773B))
    (comp (ref J1)
      (value MicroSD)
      (footprint Conn_uSDcard:Conn_uSDcard)
      (libsource (lib DataStorage) (part MicroSD))
      (sheetpath (names /) (tstamps /))
      (tstamp 56282C10))
    (comp (ref U5)
      (value 4050)
      (footprint SOIC_Packages:SOIC-16_3.9x9.9mm_Pitch1.27mm)
      (libsource (lib cmos4000) (part 4050))
      (sheetpath (names /) (tstamps /))
      (tstamp 562841E7))
    (comp (ref D4)
      (value SD)
      (footprint LEDs:LED-0805)
      (libsource (lib device) (part LED))
      (sheetpath (names /) (tstamps /))
      (tstamp 5629141C))
    (comp (ref R11)
      (value 100)
      (footprint Resistors_SMD:R_0805)
      (libsource (lib device) (part R))
      (sheetpath (names /) (tstamps /))
      (tstamp 562914F7))
    (comp (ref P6)
      (value DEBUG)
      (footprint Pin_Headers:Pin_Header_Straight_1x04)
      (libsource (lib conn) (part CONN_01X04))
      (sheetpath (names /) (tstamps /))
      (tstamp 5673C578))
    (comp (ref C12)
      (value 10nF)
      (footprint Capacitors_SMD:C_0805)
      (libsource (lib device) (part C))
      (sheetpath (names /) (tstamps /))
      (tstamp 5673F208))
    (comp (ref SW2)
      (value ~R)
      (footprint IHE:SW_M6_PTH)
      (libsource (lib device) (part SW_PUSH))
      (sheetpath (names /) (tstamps /))
      (tstamp 568BF546))
    (comp (ref SW3)
      (value FU)
      (footprint IHE:SW_M6_PTH)
      (libsource (lib device) (part SW_PUSH))
      (sheetpath (names /) (tstamps /))
      (tstamp 568BFB35))
    (comp (ref P3)
      (value SW)
      (footprint Pin_Headers:Pin_Header_Straight_1x02)
      (libsource (lib conn) (part CONN_01X02))
      (sheetpath (names /) (tstamps /))
      (tstamp 568D73FF))
    (comp (ref R3)
      (value 10K)
      (footprint Resistors_SMD:R_0805)
      (libsource (lib device) (part R))
      (sheetpath (names /) (tstamps /))
      (tstamp 568DA2FF)))
  (libparts
    (libpart (lib device) (part C)
      (description "Unpolarized capacitor")
      (footprints
        (fp C?)
        (fp C_????_*)
        (fp C_????)
        (fp SMD*_c)
        (fp Capacitor*))
      (fields
        (field (name Reference) C)
        (field (name Value) C))
      (pins
        (pin (num 1) (name ~) (type passive))
        (pin (num 2) (name ~) (type passive))))
    (libpart (lib device) (part CP)
      (description "Polarised capacitor")
      (footprints
        (fp CP*)
        (fp Elko*)
        (fp TantalC*)
        (fp C*elec)
        (fp c_elec*)
        (fp SMD*_Pol))
      (fields
        (field (name Reference) C)
        (field (name Value) CP))
      (pins
        (pin (num 1) (name ~) (type passive))
        (pin (num 2) (name ~) (type passive))))
    (libpart (lib device) (part C_Small)
      (description "Unpolarized capacitor")
      (footprints
        (fp C?)
        (fp C_????_*)
        (fp C_????)
        (fp SMD*_c)
        (fp Capacitor*))
      (fields
        (field (name Reference) C)
        (field (name Value) C_Small))
      (pins
        (pin (num 1) (name ~) (type passive))
        (pin (num 2) (name ~) (type passive))))
    (libpart (lib device) (part Crystal_Small)
      (description "Two pin crystal")
      (footprints
        (fp Crystal_))
      (fields
        (field (name Reference) Y)
        (field (name Value) Crystal_Small))
      (pins
        (pin (num 1) (name 1) (type passive))
        (pin (num 2) (name 2) (type passive))))
    (libpart (lib device) (part D)
      (description Diode)
      (footprints
        (fp Diode_*)
        (fp D-Pak_TO252AA)
        (fp *SingleDiode)
        (fp *_Diode_*)
        (fp *SingleDiode*))
      (fields
        (field (name Reference) D)
        (field (name Value) D))
      (pins
        (pin (num 1) (name K) (type passive))
        (pin (num 2) (name A) (type passive))))
    (libpart (lib device) (part LED)
      (footprints
        (fp LED-3MM)
        (fp LED-5MM)
        (fp LED-10MM)
        (fp LED-0603)
        (fp LED-0805)
        (fp LED-1206)
        (fp LEDV))
      (fields
        (field (name Reference) D)
        (field (name Value) LED))
      (pins
        (pin (num 1) (name K) (type passive))
        (pin (num 2) (name A) (type passive))))
    (libpart (lib device) (part R)
      (description Resistor)
      (footprints
        (fp R_*)
        (fp Resistor_*))
      (fields
        (field (name Reference) R)
        (field (name Value) R))
      (pins
        (pin (num 1) (name ~) (type passive))
        (pin (num 2) (name ~) (type passive))))
    (libpart (lib device) (part SW_PUSH)
      (description "Push Button")
      (fields
        (field (name Reference) SW)
        (field (name Value) SW_PUSH))
      (pins
        (pin (num 1) (name 1) (type passive))
        (pin (num 2) (name 2) (type passive))))
    (libpart (lib conn) (part CONN_01X02)
      (footprints
        (fp Pin_Header_Straight_1X02)
        (fp Pin_Header_Angled_1X02)
        (fp Socket_Strip_Straight_1X02)
        (fp Socket_Strip_Angled_1X02))
      (fields
        (field (name Reference) P)
        (field (name Value) CONN_01X02))
      (pins
        (pin (num 1) (name P1) (type passive))
        (pin (num 2) (name P2) (type passive))))
    (libpart (lib conn) (part CONN_01X04)
      (footprints
        (fp Pin_Header_Straight_1X04)
        (fp Pin_Header_Angled_1X04)
        (fp Socket_Strip_Straight_1X04)
        (fp Socket_Strip_Angled_1X04))
      (fields
        (field (name Reference) P)
        (field (name Value) CONN_01X04))
      (pins
        (pin (num 1) (name P1) (type passive))
        (pin (num 2) (name P2) (type passive))
        (pin (num 3) (name P3) (type passive))
        (pin (num 4) (name P4) (type passive))))
    (libpart (lib conn) (part CONN_02X03)
      (footprints
        (fp Pin_Header_Straight_2X03)
        (fp Pin_Header_Angled_2X03)
        (fp Socket_Strip_Straight_2X03)
        (fp Socket_Strip_Angled_2X03))
      (fields
        (field (name Reference) P)
        (field (name Value) CONN_02X03))
      (pins
        (pin (num 1) (name P1) (type passive))
        (pin (num 2) (name P2) (type passive))
        (pin (num 3) (name P3) (type passive))
        (pin (num 4) (name P4) (type passive))
        (pin (num 5) (name P5) (type passive))
        (pin (num 6) (name P6) (type passive))))
    (libpart (lib regul) (part AP1117)
      (aliases
        (alias AP1117D15)
        (alias AP1117D18)
        (alias AP1117D25)
        (alias AP1117D33)
        (alias AP1117D50)
        (alias AP1117E15)
        (alias AP1117E18)
        (alias AP1117E25)
        (alias AP1117E33)
        (alias AP1117E50)
        (alias AP1117K15)
        (alias AP1117K18)
        (alias AP1117K25)
        (alias AP1117K33)
        (alias AP1117K50)
        (alias AP1117T15)
        (alias AP1117T18)
        (alias AP1117T25)
        (alias AP1117T33)
        (alias AP1117T50)
        (alias AP1117Y15)
        (alias AP1117Y18)
        (alias AP1117Y25)
        (alias AP1117Y33)
        (alias AP1117Y50))
      (description "AP1117, Fixed/Adjustable 1A Low Dropout regulator, Positive")
      (docs http://www.diodes.com/datasheets/AP1117.pdf)
      (footprints
        (fp SOT223)
        (fp SOT89-3)
        (fp TO220-3)
        (fp TO252)
        (fp TO263))
      (fields
        (field (name Reference) U)
        (field (name Value) AP1117))
      (pins
        (pin (num 1) (name GND/ADJ) (type power_in))
        (pin (num 2) (name VO) (type power_out))
        (pin (num 3) (name VI) (type power_in))))
    (libpart (lib cmos4000) (part 4050)
      (description "Hex Buffer")
      (fields
        (field (name Reference) U)
        (field (name Value) 4050))
      (pins
        (pin (num 1) (name VCC) (type power_in))
        (pin (num 2) (name ~) (type output))
        (pin (num 3) (name ~) (type input))
        (pin (num 4) (name ~) (type output))
        (pin (num 5) (name ~) (type input))
        (pin (num 6) (name ~) (type output))
        (pin (num 7) (name ~) (type input))
        (pin (num 8) (name VSS) (type power_in))
        (pin (num 9) (name ~) (type input))
        (pin (num 10) (name ~) (type output))
        (pin (num 11) (name ~) (type input))
        (pin (num 12) (name ~) (type output))
        (pin (num 14) (name ~) (type input))
        (pin (num 15) (name ~) (type output))))
    (libpart (lib interface) (part SP3481CP)
      (aliases
        (alias SP3481EP)
        (alias SP3485CP)
        (alias SP3485EP))
      (description "SP3481CP, 3.3V Low Power Half-Duplex RS-485 Transceiver 10Mbps, DIP8")
      (docs http://www.icbase.com/pdf/SPX/SPX00480106.pdf)
      (footprints
        (fp DIP8*))
      (fields
        (field (name Reference) U)
        (field (name Value) SP3481CP)
        (field (name Footprint) DIP-8))
      (pins
        (pin (num 1) (name RO) (type output))
        (pin (num 2) (name ~RE~) (type input))
        (pin (num 3) (name DE) (type input))
        (pin (num 4) (name DI) (type input))
        (pin (num 5) (name GND) (type power_in))
        (pin (num 6) (name A) (type BiDi))
        (pin (num 7) (name B) (type BiDi))
        (pin (num 8) (name VCC) (type power_in))))
    (libpart (lib atmel) (part ATMEGA1280-A)
      (aliases
        (alias ATMEGA640-A)
        (alias ATMEGA2560-A))
      (description "ATMEGA1280, TQFP100, 128k Flash, 8k SRAM, 4k EEPROM, JTAG")
      (docs http://www.atmel.com/Images/Atmel-2549-8-bit-AVR-Microcontroller-ATmega640-1280-1281-2560-2561_datasheet.pdf)
      (fields
        (field (name Reference) IC)
        (field (name Value) ATMEGA1280-A)
        (field (name Footprint) TQFP100))
      (pins
        (pin (num 1) (name "PG5(OCOB)") (type BiDi))
        (pin (num 2) (name "(PCINT8/RXD0)PE0") (type BiDi))
        (pin (num 3) (name "(TXD0)PE1") (type BiDi))
        (pin (num 4) (name "(XCK0/AIN0)PE2") (type BiDi))
        (pin (num 5) (name "(OC3A/AIN1)PE3") (type BiDi))
        (pin (num 6) (name "(OC3B/INT4)PE4") (type BiDi))
        (pin (num 7) (name "(OC3C/INT5)PE5") (type BiDi))
        (pin (num 8) (name "(T3/INT6)PE6") (type BiDi))
        (pin (num 9) (name "(CLKO/ICP3/INT7)PE7") (type BiDi))
        (pin (num 10) (name VCC) (type power_in))
        (pin (num 11) (name GND) (type power_in))
        (pin (num 12) (name "PH0(RXD2)") (type BiDi))
        (pin (num 13) (name "PH1(TXD2)") (type BiDi))
        (pin (num 14) (name "PH2(XCK2)") (type BiDi))
        (pin (num 15) (name "PH3(OC4A)") (type BiDi))
        (pin (num 16) (name "PH4(OC4B)") (type BiDi))
        (pin (num 17) (name "PH5(OC4C)") (type BiDi))
        (pin (num 18) (name "PH6(OC2B)") (type BiDi))
        (pin (num 19) (name "(PCINT0/~SS~)PB0") (type BiDi))
        (pin (num 20) (name "(PCINT1/SCK)PB1") (type BiDi))
        (pin (num 21) (name "(PCINT2/MOSI)PB2") (type BiDi))
        (pin (num 22) (name "(PCINT3/MISO)PB3") (type BiDi))
        (pin (num 23) (name "(PCINT4/OC2A)PB4") (type BiDi))
        (pin (num 24) (name "(PCINT5/OC1A)PB5") (type BiDi))
        (pin (num 25) (name "(PCINT6/OC1B)PB6") (type BiDi))
        (pin (num 26) (name "(PCINT7/OC0A/OC1C)PB7") (type BiDi))
        (pin (num 27) (name "PH7(T4)") (type BiDi))
        (pin (num 28) (name "PG3(TOSC2)") (type BiDi))
        (pin (num 29) (name "PG4(TOSC1)") (type BiDi))
        (pin (num 30) (name ~RESET) (type input))
        (pin (num 31) (name VCC) (type power_in))
        (pin (num 32) (name GND) (type power_in))
        (pin (num 33) (name XTAL2) (type BiDi))
        (pin (num 34) (name XTAL1) (type BiDi))
        (pin (num 35) (name "PL0(ICP4)") (type BiDi))
        (pin (num 36) (name "PL1(ICP5)") (type BiDi))
        (pin (num 37) (name "PL2(T5)") (type BiDi))
        (pin (num 38) (name "PL3(OC5A)") (type BiDi))
        (pin (num 39) (name "PL4(OC5B)") (type BiDi))
        (pin (num 40) (name "PL5(OC5C)") (type BiDi))
        (pin (num 41) (name PL6) (type BiDi))
        (pin (num 42) (name PL7) (type BiDi))
        (pin (num 43) (name "(SCL/INT0)PD0") (type BiDi))
        (pin (num 44) (name "(SDA/INT1)PD1") (type BiDi))
        (pin (num 45) (name "(RXD1/INT2)PD2") (type BiDi))
        (pin (num 46) (name "(TXD1/INT3)PD3") (type BiDi))
        (pin (num 47) (name "(ICP1)PD4") (type BiDi))
        (pin (num 48) (name "(XCK1)PD5") (type BiDi))
        (pin (num 49) (name "(T1)PD6") (type BiDi))
        (pin (num 50) (name "(T2)PD7") (type BiDi))
        (pin (num 51) (name "PG0(~WR~)") (type BiDi))
        (pin (num 52) (name "PG1(~RD~)") (type BiDi))
        (pin (num 53) (name "(A8)PC0") (type output))
        (pin (num 54) (name "(A9)PC1") (type output))
        (pin (num 55) (name "(A10)PC2") (type output))
        (pin (num 56) (name "(A11)PC3") (type output))
        (pin (num 57) (name "(A12)PC4") (type output))
        (pin (num 58) (name "(A13)PC5") (type output))
        (pin (num 59) (name "(A14)PC6") (type output))
        (pin (num 60) (name "(A15)PC7") (type output))
        (pin (num 61) (name VCC) (type power_in))
        (pin (num 62) (name GND) (type power_in))
        (pin (num 63) (name "PJ0(RXD3/PCINT9)") (type BiDi))
        (pin (num 64) (name "PJ1(TXD3/PCINT10)") (type BiDi))
        (pin (num 65) (name "PJ2(XCK3/PCINT11)") (type BiDi))
        (pin (num 66) (name "PJ3(PCINT12)") (type BiDi))
        (pin (num 67) (name "PJ4(PCINT13)") (type BiDi))
        (pin (num 68) (name "PJ5(PCINT14)") (type BiDi))
        (pin (num 69) (name "PJ6(PCINT15)") (type BiDi))
        (pin (num 70) (name "PG2(ALE)") (type BiDi))
        (pin (num 71) (name "(AD7)PA7") (type BiDi))
        (pin (num 72) (name "(AD6)PA6") (type BiDi))
        (pin (num 73) (name "(AD5)PA5") (type BiDi))
        (pin (num 74) (name "(AD4)PA4") (type BiDi))
        (pin (num 75) (name "(AD3)PA3") (type BiDi))
        (pin (num 76) (name "(AD2)PA2") (type BiDi))
        (pin (num 77) (name "(AD1)PA1") (type BiDi))
        (pin (num 78) (name "(AD0)PA0") (type BiDi))
        (pin (num 79) (name PJ7) (type BiDi))
        (pin (num 80) (name VCC) (type power_in))
        (pin (num 81) (name GND) (type power_in))
        (pin (num 82) (name "PK7(ADC15/PCINT23)") (type BiDi))
        (pin (num 83) (name "PK6(ADC14/PCINT22)") (type BiDi))
        (pin (num 84) (name "PK5(ADC13/PCINT21)") (type BiDi))
        (pin (num 85) (name "PK4(ADC12/PCINT20)") (type BiDi))
        (pin (num 86) (name "PK3(ADC11/PCINT19)") (type BiDi))
        (pin (num 87) (name "PK2(ADC10/PCINT18)") (type BiDi))
        (pin (num 88) (name "PK1(ADC9/PCINT17)") (type BiDi))
        (pin (num 89) (name "PK0(ADC8/PCINT16)") (type BiDi))
        (pin (num 90) (name "(TDI/ADC7)PF7") (type input))
        (pin (num 91) (name "(TD0/ADC6)PF6") (type input))
        (pin (num 92) (name "(TMS/ADC5)PF5") (type input))
        (pin (num 93) (name "(TCK/ADC4)PF4") (type input))
        (pin (num 94) (name "(ADC3)PF3") (type input))
        (pin (num 95) (name "(ADC2)PF2") (type input))
        (pin (num 96) (name "(ADC1)PF1") (type input))
        (pin (num 97) (name "(ADC0)PF0") (type input))
        (pin (num 98) (name AREF) (type BiDi))
        (pin (num 99) (name GND) (type power_in))
        (pin (num 100) (name AVCC) (type power_in))))
    (libpart (lib Dispositivos_I2C) (part DS3231N)
      (fields
        (field (name Reference) U)
        (field (name Value) DS3231N))
      (pins
        (pin (num 1) (name 32KHz) (type output))
        (pin (num 2) (name Vcc) (type power_in))
        (pin (num 3) (name "!(INT)/SQR") (type output))
        (pin (num 4) (name "!(Reset)") (type BiDi))
        (pin (num 5) (name NC) (type passive))
        (pin (num 6) (name NC) (type passive))
        (pin (num 7) (name NC) (type passive))
        (pin (num 8) (name NC) (type passive))
        (pin (num 9) (name NC) (type passive))
        (pin (num 10) (name NC) (type passive))
        (pin (num 11) (name NC) (type passive))
        (pin (num 12) (name NC) (type passive))
        (pin (num 13) (name GND) (type power_in))
        (pin (num 14) (name Vbat) (type power_in))
        (pin (num 15) (name SDA) (type BiDi))
        (pin (num 16) (name SCL) (type input))))
    (libpart (lib DataStorage) (part SD)
      (aliases
        (alias MicroSD))
      (footprints
        (fp MICRO_SD*)
        (fp SD*))
      (fields
        (field (name Reference) J)
        (field (name Value) SD))
      (pins
        (pin (num 1) (name NC) (type BiDi))
        (pin (num 2) (name CS) (type BiDi))
        (pin (num 3) (name DI) (type BiDi))
        (pin (num 4) (name VCC) (type power_in))
        (pin (num 5) (name SCK) (type BiDi))
        (pin (num 6) (name GND) (type power_in))
        (pin (num 7) (name DO) (type BiDi))
        (pin (num 8) (name RSV) (type BiDi))
        (pin (num SHLD) (name SHIELD) (type BiDi))))
    (libpart (lib ESP8266) (part ESP-12E)
      (description "ESP8622 ESP-12E module, 22 pins, 2mm, PCB antenna")
      (docs http://l0l.org.uk/2014/12/esp8266-modules-hardware-guide-gotta-catch-em-all/)
      (footprints
        (fp ESP-12E))
      (fields
        (field (name Reference) U)
        (field (name Value) ESP-12E))
      (pins
        (pin (num 1) (name REST) (type input))
        (pin (num 2) (name ADC) (type passive))
        (pin (num 3) (name CH_PD) (type input))
        (pin (num 4) (name GPIO16) (type BiDi))
        (pin (num 5) (name GPIO14) (type BiDi))
        (pin (num 6) (name GPIO12) (type BiDi))
        (pin (num 7) (name GPIO13) (type BiDi))
        (pin (num 8) (name VCC) (type power_in))
        (pin (num 9) (name CS0) (type BiDi))
        (pin (num 10) (name MISO) (type BiDi))
        (pin (num 11) (name GPIO9) (type BiDi))
        (pin (num 12) (name GPIO10) (type BiDi))
        (pin (num 13) (name MOSI) (type BiDi))
        (pin (num 14) (name SCLK) (type BiDi))
        (pin (num 15) (name GND) (type power_in))
        (pin (num 16) (name GPIO15) (type BiDi))
        (pin (num 17) (name GPIO2) (type BiDi))
        (pin (num 18) (name GPIO0) (type BiDi))
        (pin (num 19) (name GPIO4) (type BiDi))
        (pin (num 20) (name GPIO5) (type BiDi))
        (pin (num 21) (name RXD) (type input))
        (pin (num 22) (name TXD) (type output)))))
  (libraries
    (library (logical device)
      (uri "C:\\Program Files\\KiCad\\share\\kicad\\library\\device.lib"))
    (library (logical conn)
      (uri "C:\\Program Files\\KiCad\\share\\kicad\\library\\conn.lib"))
    (library (logical regul)
      (uri "C:\\Program Files\\KiCad\\share\\kicad\\library\\regul.lib"))
    (library (logical cmos4000)
      (uri "C:\\Program Files\\KiCad\\share\\kicad\\library\\cmos4000.lib"))
    (library (logical interface)
      (uri "C:\\Program Files\\KiCad\\share\\kicad\\library\\interface.lib"))
    (library (logical atmel)
      (uri "C:\\Program Files\\KiCad\\share\\kicad\\library\\atmel.lib"))
    (library (logical Dispositivos_I2C)
      (uri D:\gitlab\EMS\Hardware\EnergyMonitorSystem\Dispositivos_I2C.lib))
    (library (logical DataStorage)
      (uri C:\KiCad\KiCad-Libraries-masterimciner2\symbols\DataStorage.lib))
    (library (logical ESP8266)
      (uri D:\gitlab\EMS\Hardware\EnergyMonitorSystem\kicad-ESP8266\ESP8266.lib)))
  (nets
    (net (code 1) (name /MB_ACT)
      (node (ref IC1) (pin 14))
      (node (ref R7) (pin 2)))
    (net (code 2) (name "Net-(D3-Pad2)")
      (node (ref R7) (pin 1))
      (node (ref D3) (pin 2)))
    (net (code 3) (name GND)
      (node (ref C11) (pin 2))
      (node (ref J1) (pin 6))
      (node (ref C3) (pin 2))
      (node (ref C1) (pin 2))
      (node (ref SW1) (pin 1))
      (node (ref C8) (pin 2))
      (node (ref D2) (pin 1))
      (node (ref U1) (pin 1))
      (node (ref U3) (pin 1))
      (node (ref IC1) (pin 99))
      (node (ref C6) (pin 2))
      (node (ref C10) (pin 2))
      (node (ref P3) (pin 2))
      (node (ref P6) (pin 4))
      (node (ref SW3) (pin 2))
      (node (ref SW2) (pin 2))
      (node (ref U5) (pin 8))
      (node (ref U2) (pin 5))
      (node (ref U4) (pin 10))
      (node (ref U4) (pin 9))
      (node (ref U4) (pin 8))
      (node (ref U4) (pin 7))
      (node (ref U4) (pin 6))
      (node (ref U4) (pin 5))
      (node (ref P2) (pin 2))
      (node (ref U4) (pin 13))
      (node (ref U4) (pin 12))
      (node (ref R5) (pin 1))
      (node (ref U4) (pin 11))
      (node (ref C4) (pin 2))
      (node (ref IC1) (pin 11))
      (node (ref IC1) (pin 62))
      (node (ref IC1) (pin 32))
      (node (ref IC1) (pin 81))
      (node (ref P7) (pin 2))
      (node (ref P4) (pin 6))
      (node (ref C9) (pin 1))
      (node (ref C7) (pin 2))
      (node (ref C5) (pin 2))
      (node (ref D3) (pin 1))
      (node (ref P1) (pin 2))
      (node (ref U6) (pin 16))
      (node (ref U6) (pin 15))
      (node (ref C2) (pin 2)))
    (net (code 4) (name "Net-(D2-Pad2)")
      (node (ref D2) (pin 2))
      (node (ref R6) (pin 1)))
    (net (code 5) (name "Net-(U6-Pad2)")
      (node (ref U6) (pin 2)))
    (net (code 6) (name "Net-(IC1-Pad38)")
      (node (ref IC1) (pin 38)))
    (net (code 7) (name "Net-(IC1-Pad7)")
      (node (ref IC1) (pin 7)))
    (net (code 8) (name "Net-(IC1-Pad8)")
      (node (ref IC1) (pin 8)))
    (net (code 9) (name "Net-(IC1-Pad91)")
      (node (ref IC1) (pin 91)))
    (net (code 10) (name "Net-(IC1-Pad90)")
      (node (ref IC1) (pin 90)))
    (net (code 11) (name "Net-(U6-Pad4)")
      (node (ref U6) (pin 4)))
    (net (code 12) (name "Net-(U6-Pad6)")
      (node (ref U6) (pin 6)))
    (net (code 13) (name "Net-(R10-Pad2)")
      (node (ref R10) (pin 2))
      (node (ref U6) (pin 3)))
    (net (code 14) (name "Net-(U6-Pad5)")
      (node (ref U6) (pin 5)))
    (net (code 15) (name "Net-(U6-Pad7)")
      (node (ref U6) (pin 7)))
    (net (code 16) (name "Net-(U6-Pad9)")
      (node (ref U6) (pin 9)))
    (net (code 17) (name "Net-(U6-Pad10)")
      (node (ref U6) (pin 10)))
    (net (code 18) (name "Net-(U6-Pad11)")
      (node (ref U6) (pin 11)))
    (net (code 19) (name "Net-(U6-Pad12)")
      (node (ref U6) (pin 12)))
    (net (code 20) (name "Net-(U6-Pad13)")
      (node (ref U6) (pin 13)))
    (net (code 21) (name "Net-(U6-Pad14)")
      (node (ref U6) (pin 14)))
    (net (code 22) (name "Net-(U6-Pad19)")
      (node (ref U6) (pin 19)))
    (net (code 23) (name "Net-(U6-Pad20)")
      (node (ref U6) (pin 20)))
    (net (code 24) (name "Net-(IC1-Pad5)")
      (node (ref IC1) (pin 5)))
    (net (code 25) (name "Net-(IC1-Pad70)")
      (node (ref IC1) (pin 70)))
    (net (code 26) (name "Net-(IC1-Pad29)")
      (node (ref IC1) (pin 29)))
    (net (code 27) (name "Net-(IC1-Pad28)")
      (node (ref IC1) (pin 28)))
    (net (code 28) (name "Net-(IC1-Pad52)")
      (node (ref IC1) (pin 52)))
    (net (code 29) (name "Net-(IC1-Pad51)")
      (node (ref IC1) (pin 51)))
    (net (code 30) (name "Net-(IC1-Pad27)")
      (node (ref IC1) (pin 27)))
    (net (code 31) (name "Net-(IC1-Pad18)")
      (node (ref IC1) (pin 18)))
    (net (code 32) (name "Net-(IC1-Pad17)")
      (node (ref IC1) (pin 17)))
    (net (code 33) (name "Net-(IC1-Pad16)")
      (node (ref IC1) (pin 16)))
    (net (code 34) (name "Net-(IC1-Pad79)")
      (node (ref IC1) (pin 79)))
    (net (code 35) (name "Net-(IC1-Pad69)")
      (node (ref IC1) (pin 69)))
    (net (code 36) (name "Net-(IC1-Pad68)")
      (node (ref IC1) (pin 68)))
    (net (code 37) (name "Net-(IC1-Pad67)")
      (node (ref IC1) (pin 67)))
    (net (code 38) (name /SDA)
      (node (ref U4) (pin 15))
      (node (ref IC1) (pin 44))
      (node (ref R1) (pin 2)))
    (net (code 39) (name /SCL)
      (node (ref U4) (pin 16))
      (node (ref R2) (pin 2))
      (node (ref IC1) (pin 43)))
    (net (code 40) (name "Net-(IC1-Pad66)")
      (node (ref IC1) (pin 66)))
    (net (code 41) (name "Net-(IC1-Pad55)")
      (node (ref IC1) (pin 55)))
    (net (code 42) (name "Net-(IC1-Pad73)")
      (node (ref IC1) (pin 73)))
    (net (code 43) (name "Net-(IC1-Pad72)")
      (node (ref IC1) (pin 72)))
    (net (code 44) (name "Net-(IC1-Pad71)")
      (node (ref IC1) (pin 71)))
    (net (code 45) (name /SD_CS_5V)
      (node (ref IC1) (pin 19))
      (node (ref U5) (pin 14)))
    (net (code 46) (name "Net-(IC1-Pad23)")
      (node (ref IC1) (pin 23)))
    (net (code 47) (name "Net-(IC1-Pad25)")
      (node (ref IC1) (pin 25)))
    (net (code 48) (name "Net-(IC1-Pad24)")
      (node (ref IC1) (pin 24)))
    (net (code 49) (name "Net-(IC1-Pad26)")
      (node (ref IC1) (pin 26)))
    (net (code 50) (name "Net-(IC1-Pad53)")
      (node (ref IC1) (pin 53)))
    (net (code 51) (name "Net-(IC1-Pad54)")
      (node (ref IC1) (pin 54)))
    (net (code 52) (name "Net-(IC1-Pad74)")
      (node (ref IC1) (pin 74)))
    (net (code 53) (name "Net-(IC1-Pad56)")
      (node (ref IC1) (pin 56)))
    (net (code 54) (name "Net-(IC1-Pad57)")
      (node (ref IC1) (pin 57)))
    (net (code 55) (name "Net-(IC1-Pad58)")
      (node (ref IC1) (pin 58)))
    (net (code 56) (name "Net-(IC1-Pad59)")
      (node (ref IC1) (pin 59)))
    (net (code 57) (name "Net-(IC1-Pad60)")
      (node (ref IC1) (pin 60)))
    (net (code 58) (name "Net-(IC1-Pad47)")
      (node (ref IC1) (pin 47)))
    (net (code 59) (name "Net-(IC1-Pad48)")
      (node (ref IC1) (pin 48)))
    (net (code 60) (name "Net-(IC1-Pad49)")
      (node (ref IC1) (pin 49)))
    (net (code 61) (name "Net-(IC1-Pad50)")
      (node (ref IC1) (pin 50)))
    (net (code 62) (name "Net-(IC1-Pad4)")
      (node (ref IC1) (pin 4)))
    (net (code 63) (name "Net-(IC1-Pad42)")
      (node (ref IC1) (pin 42)))
    (net (code 64) (name "Net-(IC1-Pad65)")
      (node (ref IC1) (pin 65)))
    (net (code 65) (name "Net-(IC1-Pad64)")
      (node (ref IC1) (pin 64)))
    (net (code 66) (name "Net-(IC1-Pad63)")
      (node (ref IC1) (pin 63)))
    (net (code 67) (name "Net-(IC1-Pad82)")
      (node (ref IC1) (pin 82)))
    (net (code 68) (name "Net-(IC1-Pad83)")
      (node (ref IC1) (pin 83)))
    (net (code 69) (name "Net-(IC1-Pad84)")
      (node (ref IC1) (pin 84)))
    (net (code 70) (name "Net-(IC1-Pad85)")
      (node (ref IC1) (pin 85)))
    (net (code 71) (name "Net-(IC1-Pad86)")
      (node (ref IC1) (pin 86)))
    (net (code 72) (name "Net-(IC1-Pad87)")
      (node (ref IC1) (pin 87)))
    (net (code 73) (name "Net-(IC1-Pad88)")
      (node (ref IC1) (pin 88)))
    (net (code 74) (name "Net-(IC1-Pad89)")
      (node (ref IC1) (pin 89)))
    (net (code 75) (name "Net-(IC1-Pad41)")
      (node (ref IC1) (pin 41)))
    (net (code 76) (name "Net-(IC1-Pad40)")
      (node (ref IC1) (pin 40)))
    (net (code 77) (name "Net-(IC1-Pad39)")
      (node (ref IC1) (pin 39)))
    (net (code 78) (name "Net-(IC1-Pad37)")
      (node (ref IC1) (pin 37)))
    (net (code 79) (name "Net-(IC1-Pad36)")
      (node (ref IC1) (pin 36)))
    (net (code 80) (name "Net-(IC1-Pad35)")
      (node (ref IC1) (pin 35)))
    (net (code 81) (name "Net-(IC1-Pad78)")
      (node (ref IC1) (pin 78)))
    (net (code 82) (name "Net-(IC1-Pad77)")
      (node (ref IC1) (pin 77)))
    (net (code 83) (name "Net-(IC1-Pad76)")
      (node (ref IC1) (pin 76)))
    (net (code 84) (name "Net-(IC1-Pad75)")
      (node (ref IC1) (pin 75)))
    (net (code 85) (name VCC)
      (node (ref U6) (pin 17))
      (node (ref R9) (pin 2))
      (node (ref U6) (pin 8))
      (node (ref U5) (pin 1))
      (node (ref C6) (pin 1))
      (node (ref U1) (pin 2))
      (node (ref J1) (pin 4))
      (node (ref R10) (pin 1)))
    (net (code 86) (name /TX1_ESP_3V3)
      (node (ref U6) (pin 21))
      (node (ref U5) (pin 4)))
    (net (code 87) (name "Net-(R9-Pad1)")
      (node (ref U6) (pin 1))
      (node (ref SW2) (pin 1))
      (node (ref R9) (pin 1)))
    (net (code 88) (name "Net-(SW3-Pad1)")
      (node (ref SW3) (pin 1))
      (node (ref U6) (pin 18)))
    (net (code 89) (name "Net-(D4-Pad1)")
      (node (ref R11) (pin 1))
      (node (ref D4) (pin 1)))
    (net (code 90) (name /DTR)
      (node (ref C12) (pin 1))
      (node (ref P6) (pin 1)))
    (net (code 91) (name "Net-(IC1-Pad15)")
      (node (ref IC1) (pin 15)))
    (net (code 92) (name "Net-(IC1-Pad6)")
      (node (ref IC1) (pin 6)))
    (net (code 93) (name "Net-(IC1-Pad97)")
      (node (ref IC1) (pin 97)))
    (net (code 94) (name "Net-(IC1-Pad96)")
      (node (ref IC1) (pin 96)))
    (net (code 95) (name "Net-(IC1-Pad95)")
      (node (ref IC1) (pin 95)))
    (net (code 96) (name "Net-(IC1-Pad94)")
      (node (ref IC1) (pin 94)))
    (net (code 98) (name "Net-(U5-Pad3)")
      (node (ref U6) (pin 22))
      (node (ref U5) (pin 3)))
    (net (code 99) (name /OPEN_DETECT)
      (node (ref IC1) (pin 1))
      (node (ref R3) (pin 1)))
    (net (code 100) (name "Net-(P3-Pad1)")
      (node (ref P3) (pin 1))
      (node (ref R3) (pin 2)))
    (net (code 101) (name /MOSI_5V)
      (node (ref IC1) (pin 21))
      (node (ref P4) (pin 4))
      (node (ref U5) (pin 11)))
    (net (code 102) (name "Net-(D4-Pad2)")
      (node (ref U5) (pin 6))
      (node (ref D4) (pin 2)))
    (net (code 103) (name /SCK_5V)
      (node (ref P4) (pin 3))
      (node (ref U5) (pin 9))
      (node (ref IC1) (pin 20))
      (node (ref U5) (pin 7)))
    (net (code 104) (name "Net-(J1-Pad8)")
      (node (ref J1) (pin 8)))
    (net (code 105) (name "Net-(IC1-Pad93)")
      (node (ref IC1) (pin 93)))
    (net (code 106) (name "Net-(IC1-Pad92)")
      (node (ref IC1) (pin 92)))
    (net (code 107) (name "Net-(J1-Pad1)")
      (node (ref J1) (pin 1)))
    (net (code 108) (name /MOSI_3V3)
      (node (ref U5) (pin 12))
      (node (ref J1) (pin 3)))
    (net (code 110) (name "Net-(J1-PadSHLD)")
      (node (ref J1) (pin SHLD)))
    (net (code 111) (name "Net-(J1-PadSHLD)")
      (node (ref J1) (pin SHLD)))
    (net (code 112) (name "Net-(J1-PadSHLD)")
      (node (ref J1) (pin SHLD)))
    (net (code 113) (name /MISO_5V)
      (node (ref P4) (pin 1))
      (node (ref IC1) (pin 22))
      (node (ref J1) (pin 7)))
    (net (code 114) (name /SD_CS_3V3)
      (node (ref U5) (pin 15))
      (node (ref J1) (pin 2))
      (node (ref R11) (pin 2)))
    (net (code 115) (name /SCK_3V3)
      (node (ref U5) (pin 10))
      (node (ref J1) (pin 5)))
    (net (code 116) (name "Net-(D1-Pad2)")
      (node (ref P1) (pin 1))
      (node (ref D1) (pin 2)))
    (net (code 117) (name /5V)
      (node (ref IC1) (pin 100))
      (node (ref U3) (pin 2))
      (node (ref P4) (pin 2))
      (node (ref U1) (pin 3))
      (node (ref C8) (pin 1))
      (node (ref C2) (pin 1))
      (node (ref R1) (pin 1))
      (node (ref R8) (pin 2))
      (node (ref R2) (pin 1))
      (node (ref U4) (pin 2))
      (node (ref R6) (pin 2))
      (node (ref U2) (pin 8))
      (node (ref C7) (pin 1))
      (node (ref IC1) (pin 10))
      (node (ref R4) (pin 2))
      (node (ref IC1) (pin 61))
      (node (ref IC1) (pin 31))
      (node (ref IC1) (pin 80))
      (node (ref C1) (pin 1))
      (node (ref C5) (pin 1))
      (node (ref C3) (pin 1)))
    (net (code 118) (name "Net-(C10-Pad1)")
      (node (ref C10) (pin 1))
      (node (ref IC1) (pin 33))
      (node (ref Y1) (pin 1)))
    (net (code 119) (name "Net-(C11-Pad1)")
      (node (ref C11) (pin 1))
      (node (ref Y1) (pin 2))
      (node (ref IC1) (pin 34)))
    (net (code 120) (name /~R)
      (node (ref C12) (pin 2))
      (node (ref R8) (pin 1))
      (node (ref SW1) (pin 2))
      (node (ref C9) (pin 2))
      (node (ref P4) (pin 5))
      (node (ref IC1) (pin 30)))
    (net (code 121) (name /12V)
      (node (ref D1) (pin 1))
      (node (ref U3) (pin 3))
      (node (ref C4) (pin 1))
      (node (ref P7) (pin 1)))
    (net (code 122) (name /TX2_485)
      (node (ref U2) (pin 4))
      (node (ref IC1) (pin 13)))
    (net (code 123) (name /TX0_DBG)
      (node (ref IC1) (pin 2))
      (node (ref P6) (pin 2)))
    (net (code 124) (name /RX0_DBG)
      (node (ref IC1) (pin 3))
      (node (ref P6) (pin 3)))
    (net (code 125) (name "Net-(IC1-Pad98)")
      (node (ref IC1) (pin 98)))
    (net (code 126) (name /RX1_ESP_5V)
      (node (ref U5) (pin 2))
      (node (ref IC1) (pin 45)))
    (net (code 127) (name /RX2_485)
      (node (ref IC1) (pin 12))
      (node (ref U2) (pin 1)))
    (net (code 128) (name /TX1_ESP_5V)
      (node (ref U5) (pin 5))
      (node (ref IC1) (pin 46)))
    (net (code 129) (name /TX_EN_485)
      (node (ref U2) (pin 2))
      (node (ref U2) (pin 3))
      (node (ref IC1) (pin 9)))
    (net (code 130) (name "Net-(U4-Pad1)")
      (node (ref U4) (pin 1)))
    (net (code 131) (name "Net-(U4-Pad3)")
      (node (ref U4) (pin 3)))
    (net (code 132) (name "Net-(U4-Pad4)")
      (node (ref U4) (pin 4)))
    (net (code 133) (name /A)
      (node (ref R4) (pin 1))
      (node (ref P5) (pin 2))
      (node (ref U2) (pin 6)))
    (net (code 134) (name /B)
      (node (ref U2) (pin 7))
      (node (ref R5) (pin 2))
      (node (ref P5) (pin 1)))
    (net (code 135) (name /Vbat)
      (node (ref U4) (pin 14))
      (node (ref P2) (pin 1)))))